Introduction to R
…
# Row functions: _filter_

```r
 gapminder |> 
  
  # focus only on Asian countries with life expectancy greater than 70
  filter(lifeExp > 70 & continent=='Asia') |> 
  
  #focus  only on countries with per capita GDP greater than 2000
  filter(gdpPercap > 2000)
```

```
## # A tibble: 91 × 6
##    country          continent  year lifeExp        pop gdpPercap
##    <fct>            <fct>     <int>   <dbl>      <int>     <dbl>
##  1 Bahrain          Asia       1987    70.8     454612    18524.
##  2 Bahrain          Asia       1992    72.6     529491    19036.
##  3 Bahrain          Asia       1997    73.9     598561    20292.
##  4 Bahrain          Asia       2002    74.8     656397    23404.
##  5 Bahrain          Asia       2007    75.6     708573    29796.
##  6 China            Asia       1997    70.4 1230075000     2289.
##  7 China            Asia       2002    72.0 1280400000     3119.
##  8 China            Asia       2007    73.0 1318683096     4959.
##  9 Hong Kong, China Asia       1972    72      4115700     8316.
## 10 Hong Kong, China Asia       1977    73.6    4583700    11186.
## # ℹ 81 more rows
```

---

# Row functions: _filter_

- Use `%in%` when combining `|` and `==`

```r
gapminder |> 
  filter(country == 'Afghanistan' | country == 'Mali' )
```

```
## # A tibble: 24 × 6
##    country     continent  year lifeExp      pop gdpPercap
##    <fct>       <fct>     <int>   <dbl>    <int>     <dbl>
##  1 Afghanistan Asia       1952    28.8  8425333      779.
##  2 Afghanistan Asia       1957    30.3  9240934      821.
##  3 Afghanistan Asia       1962    32.0 10267083      853.
##  4 Afghanistan Asia       1967    34.0 11537966      836.
##  5 Afghanistan Asia       1972    36.1 13079460      740.
##  6 Afghanistan Asia       1977    38.4 14880372      786.
##  7 Afghanistan Asia       1982    39.9 12881816      978.
##  8 Afghanistan Asia       1987    40.8 13867957      852.
##  9 Afghanistan Asia       1992    41.7 16317921      649.
## 10 Afghanistan Asia       1997    41.8 22227415      635.
## # ℹ 14 more rows
```

---

# Row functions: _filter_

```r
gapminder |> 
  filter(country %in% c('Afghanistan', 'Mali') )
```

```
## # A tibble: 24 × 6
##    country     continent  year lifeExp      pop gdpPercap
##    <fct>       <fct>     <int>   <dbl>    <int>     <dbl>
##  1 Afghanistan Asia       1952    28.8  8425333      779.
##  2 Afghanistan Asia       1957    30.3  9240934      821.
##  3 Afghanistan Asia       1962    32.0 10267083      853.
##  4 Afghanistan Asia       1967    34.0 11537966      836.
##  5 Afghanistan Asia       1972    36.1 13079460      740.
##  6 Afghanistan Asia       1977    38.4 14880372      786.
##  7 Afghanistan Asia       1982    39.9 12881816      978.
##  8 Afghanistan Asia       1987    40.8 13867957      852.
##  9 Afghanistan Asia       1992    41.7 16317921      649.
## 10 Afghanistan Asia       1997    41.8 22227415      635.
## # ℹ 14 more rows
```
…
- When filtering, `dplyr::filter` operates on `gapminder` and prints the final results
- `gapminder` data by itself is untouched
- You can store the result in the new `dataframe`

```r
newGapminder <-  gapminder |> 
  
  filter(country %in% c('Afghanistan', 'Mali') )

newGapminder
```

```
## # A tibble: 24 × 6
##    country     continent  year lifeExp      pop gdpPercap
##    <fct>       <fct>     <int>   <dbl>    <int>     <dbl>
##  1 Afghanistan Asia       1952    28.8  8425333      779.
##  2 Afghanistan Asia       1957    30.3  9240934      821.
##  3 Afghanistan Asia       1962    32.0 10267083      853.
##  4 Afghanistan Asia       1967    34.0 11537966      836.
##  5 Afghanistan Asia       1972    36.1 13079460      740.
##  6 Afghanistan Asia       1977    38.4 14880372      786.
##  7 Afghanistan Asia       1982    39.9 12881816      978.
##  8 Afghanistan Asia       1987    40.8 13867957      852.
##  9 Afghanistan Asia       1992    41.7 16317921      649.
## 10 Afghanistan Asia       1997    41.8 22227415      635.
## # ℹ 14 more rows
```

---

# Row functions: _arrange_

- Change  the ordering of rows based on the value of column(s)

```r
gapminder |> 
  arrange(year, gdpPercap) 
```

```
## # A tibble: 1,704 × 6
##    country           continent  year lifeExp       pop gdpPercap
##    <fct>             <fct>     <int>   <dbl>     <int>     <dbl>
##  1 Lesotho           Africa     1952    42.1    748747      299.
##  2 Guinea-Bissau     Africa     1952    32.5    580653      300.
##  3 Eritrea           Africa     1952    35.9   1438760      329.
##  4 Myanmar           Asia       1952    36.3  20092996      331 
##  5 Burundi           Africa     1952    39.0   2445618      339.
##  6 Ethiopia          Africa     1952    34.1  20860941      362.
##  7 Cambodia          Asia       1952    39.4   4693836      368.
##  8 Malawi            Africa     1952    36.3   2917802      369.
##  9 Equatorial Guinea Africa     1952    34.5    216964      376.
## 10 China             Asia       1952    44   556263527      400.
## # ℹ 1,694 more rows
```

---

# Row functions: _arrange_

- Use `desc` within `arrange` for sorting from largest to smallest
    - Caveat: can use only one argument

```r
gapminder |> 
  arrange(desc( gdpPercap)) 
```

```
## # A tibble: 1,704 × 6
##    country   continent  year lifeExp     pop gdpPercap
##    <fct>     <fct>     <int>   <dbl>   <int>     <dbl>
##  1 Kuwait    Asia       1957    58.0  212846   113523.
##  2 Kuwait    Asia       1972    67.7  841934   109348.
##  3 Kuwait    Asia       1952    55.6  160000   108382.
##  4 Kuwait    Asia       1962    60.5  358266    95458.
##  5 Kuwait    Asia       1967    64.6  575003    80895.
##  6 Kuwait    Asia       1977    69.3 1140357    59265.
##  7 Norway    Europe     2007    80.2 4627926    49357.
##  8 Kuwait    Asia       2007    77.6 2505559    47307.
##  9 Singapore Asia       2007    80.0 4553009    47143.
## 10 Norway    Europe     2002    79.0 4535591    44684.
## # ℹ 1,694 more rows
```

---

# Row functions: _distinct_

- _distinct_ searches and keeps all unique  rows in a dataset

```r
gapminder |> 
  distinct()
```

```
## # A tibble: 1,704 × 6
##    country     continent  year lifeExp      pop gdpPercap
##    <fct>       <fct>     <int>   <dbl>    <int>     <dbl>
##  1 Afghanistan Asia       1952    28.8  8425333      779.
##  2 Afghanistan Asia       1957    30.3  9240934      821.
##  3 Afghanistan Asia       1962    32.0 10267083      853.
##  4 Afghanistan Asia       1967    34.0 11537966      836.
##  5 Afghanistan Asia       1972    36.1 13079460      740.
##  6 Afghanistan Asia       1977    38.4 14880372      786.
##  7 Afghanistan Asia       1982    39.9 12881816      978.
##  8 Afghanistan Asia       1987    40.8 13867957      852.
##  9 Afghanistan Asia       1992    41.7 16317921      649.
## 10 Afghanistan Asia       1997    41.8 22227415      635.
## # ℹ 1,694 more rows
```
…
---

# Column functions: _mutate_
- _mutate_ helps add new columns using existing columns

```r
gapminder |> 
  mutate(logGdpPerCapita = log(gdpPercap))
```

```
## # A tibble: 1,704 × 7
##    country     continent  year lifeExp      pop gdpPercap logGdpPerCapita
##    <fct>       <fct>     <int>   <dbl>    <int>     <dbl>           <dbl>
##  1 Afghanistan Asia       1952    28.8  8425333      779.            6.66
##  2 Afghanistan Asia       1957    30.3  9240934      821.            6.71
##  3 Afghanistan Asia       1962    32.0 10267083      853.            6.75
##  4 Afghanistan Asia       1967    34.0 11537966      836.            6.73
##  5 Afghanistan Asia       1972    36.1 13079460      740.            6.61
##  6 Afghanistan Asia       1977    38.4 14880372      786.            6.67
##  7 Afghanistan Asia       1982    39.9 12881816      978.            6.89
##  8 Afghanistan Asia       1987    40.8 13867957      852.            6.75
##  9 Afghanistan Asia       1992    41.7 16317921      649.            6.48
## 10 Afghanistan Asia       1997    41.8 22227415      635.            6.45
## # ℹ 1,694 more rows
```
…
# Column functions: _mutate_

- Imagine you have a dataset of `500` columns
- You do a `mutate` and then `View` it
- By default new column is added  to the last
- Use `.before` to put the new column first

```r
gapminder |> 
  mutate(logGdpPerCapita = log(gdpPercap), .before=1)
```

```
## # A tibble: 1,704 × 7
##    logGdpPerCapita country     continent  year lifeExp      pop gdpPercap
##              <dbl> <fct>       <fct>     <int>   <dbl>    <int>     <dbl>
##  1            6.66 Afghanistan Asia       1952    28.8  8425333      779.
##  2            6.71 Afghanistan Asia       1957    30.3  9240934      821.
##  3            6.75 Afghanistan Asia       1962    32.0 10267083      853.
##  4            6.73 Afghanistan Asia       1967    34.0 11537966      836.
##  5            6.61 Afghanistan Asia       1972    36.1 13079460      740.
##  6            6.67 Afghanistan Asia       1977    38.4 14880372      786.
##  7            6.89 Afghanistan Asia       1982    39.9 12881816      978.
##  8            6.75 Afghanistan Asia       1987    40.8 13867957      852.
##  9            6.48 Afghanistan Asia       1992    41.7 16317921      649.
## 10            6.45 Afghanistan Asia       1997    41.8 22227415      635.
## # ℹ 1,694 more rows
```

---

# Column functions: _mutate_

-  Can use `.after` also

```r
gapminder |> 
  mutate(logGdpPerCapita = log(gdpPercap), .after=year)
```

```
## # A tibble: 1,704 × 7
##    country     continent  year logGdpPerCapita lifeExp      pop gdpPercap
##    <fct>       <fct>     <int>           <dbl>   <dbl>    <int>     <dbl>
##  1 Afghanistan Asia       1952            6.66    28.8  8425333      779.
##  2 Afghanistan Asia       1957            6.71    30.3  9240934      821.
##  3 Afghanistan Asia       1962            6.75    32.0 10267083      853.
##  4 Afghanistan Asia       1967            6.73    34.0 11537966      836.
##  5 Afghanistan Asia       1972            6.61    36.1 13079460      740.
##  6 Afghanistan Asia       1977            6.67    38.4 14880372      786.
##  7 Afghanistan Asia       1982            6.89    39.9 12881816      978.
##  8 Afghanistan Asia       1987            6.75    40.8 13867957      852.
##  9 Afghanistan Asia       1992            6.48    41.7 16317921      649.
## 10 Afghanistan Asia       1997            6.45    41.8 22227415      635.
## # ℹ 1,694 more rows
```
…
